%YAML 1.1
%TAG !u! tag:unity3d.com,2011:
--- !u!1001 &100100000
Prefab:
  m_ObjectHideFlags: 1
  serializedVersion: 2
  m_Modification:
    m_TransformParent: {fileID: 0}
    m_Modifications: []
    m_RemovedComponents: []
  m_ParentPrefab: {fileID: 0}
  m_RootGameObject: {fileID: 1226476618255692}
  m_IsPrefabParent: 1
--- !u!1 &1226476618255692
GameObject:
  m_ObjectHideFlags: 0
  m_PrefabParentObject: {fileID: 0}
  m_PrefabInternal: {fileID: 100100000}
  serializedVersion: 5
  m_Component:
  - component: {fileID: 4811983875442208}
  - component: {fileID: 212197738262711100}
  - component: {fileID: 60616692296178476}
  m_Layer: 0
  m_Name: Banana
  m_TagString: Zivot
  m_Icon: {fileID: 0}
  m_NavMeshLayer: 0
  m_StaticEditorFlags: 0
  m_IsActive: 1
--- !u!4 &4811983875442208
Transform:
  m_ObjectHideFlags: 1
  m_PrefabParentObject: {fileID: 0}
  m_PrefabInternal: {fileID: 100100000}
  m_GameObject: {fileID: 1226476618255692}
  m_LocalRotation: {x: 0, y: 0, z: 0, w: 1}
  m_LocalPosition: {x: 26.3, y: -2.98, z: 0}
  m_LocalScale: {x: 0.40696907, y: 0.27393275, z: 1}
  m_Children: []
  m_Father: {fileID: 0}
  m_RootOrder: 0
  m_LocalEulerAnglesHint: {x: 0, y: 0, z: 0}
--- !u!60 &60616692296178476
PolygonCollider2D:
  m_ObjectHideFlags: 1
  m_PrefabParentObject: {fileID: 0}
  m_PrefabInternal: {fileID: 100100000}
  m_GameObject: {fileID: 1226476618255692}
  m_Enabled: 1
  m_Density: 1
  m_Material: {fileID: 0}
  m_IsTrigger: 1
  m_UsedByEffector: 0
  m_UsedByComposite: 0
  m_Offset: {x: 0, y: 0}
  m_SpriteTilingProperty:
    border: {x: 0, y: 0, z: 0, w: 0}
    pivot: {x: 0.5, y: 0.5}
    oldSize: {x: 3, y: 2.53}
    newSize: {x: 3, y: 2.53}
    adaptiveTilingThreshold: 0.5
    drawMode: 0
    adaptiveTiling: 0
  m_AutoTiling: 0
  m_Points:
    m_Paths:
    - - {x: 0.83, y: -1.0749999}
      - {x: 0.61, y: -0.885}
      - {x: 0.69, y: -0.885}
      - {x: 0.82, y: -0.815}
      - {x: 0.89, y: -0.645}
      - {x: 0.85999995, y: -0.465}
      - {x: 0.71, y: -0.515}
      - {x: 0.58, y: -0.635}
      - {x: 0.52, y: -0.525}
      - {x: 0.51, y: -0.305}
      - {x: 0.57, y: -0.145}
      - {x: 0.71, y: -0.015}
      - {x: 0.76, y: -0.13499999}
      - {x: 0.90999997, y: -0.275}
      - {x: 1.0699999, y: -0.345}
      - {x: 1.28, y: -0.325}
      - {x: 1.5, y: -0.205}
      - {x: 1.5, y: -0.105}
      - {x: 1.4399999, y: -0.095}
      - {x: 1.41, y: -0.114999995}
      - {x: 1.14, y: -0.074999996}
      - {x: 1.28, y: 0.044999998}
      - {x: 1.31, y: 0.095}
      - {x: 1.3299999, y: 0.285}
      - {x: 1.29, y: 0.305}
      - {x: 1.24, y: 0.305}
      - {x: 1.1, y: 0.195}
      - {x: 1.04, y: 0.325}
      - {x: 1.03, y: 0.59499997}
      - {x: 1.01, y: 0.805}
      - {x: 0.96999997, y: 0.945}
      - {x: 0.84, y: 1.245}
      - {x: 0.82, y: 1.265}
      - {x: 0.7, y: 1.265}
      - {x: 0.68, y: 1.245}
      - {x: 0.71, y: 1.015}
      - {x: 0.64, y: 0.91499996}
      - {x: 0.59999996, y: 0.835}
      - {x: 0.58, y: 0.645}
      - {x: 0.56, y: 0.205}
      - {x: 0.48999998, y: 0.055}
      - {x: 0.48, y: 0.175}
      - {x: 0.41, y: 0.325}
      - {x: 0.32, y: 0.405}
      - {x: 0.26999998, y: 0.705}
      - {x: 0.22999999, y: 0.755}
      - {x: 0.06, y: 0.715}
      - {x: 0.099999994, y: 0.405}
      - {x: 0, y: 0.24499999}
      - {x: -0.01, y: 0.175}
      - {x: -0.22, y: -0.035}
      - {x: -0.22, y: 0.024999999}
      - {x: -0.22999999, y: 0.145}
      - {x: -0.24, y: 0.435}
      - {x: -0.26, y: 0.765}
      - {x: -0.41, y: 0.97499996}
      - {x: -0.44, y: 1.145}
      - {x: -0.48999998, y: 1.2149999}
      - {x: -0.63, y: 1.145}
      - {x: -0.58, y: 0.91499996}
      - {x: -0.69, y: 0.72499996}
      - {x: -0.71999997, y: 0.525}
      - {x: -0.72999996, y: 0.015}
      - {x: -0.84999996, y: -0.175}
      - {x: -1.1899999, y: -0.255}
      - {x: -1.42, y: -0.105}
      - {x: -1.5, y: -0.125}
      - {x: -1.5, y: -0.195}
      - {x: -1.35, y: -0.36499998}
      - {x: -1.15, y: -0.45499998}
      - {x: -0.90999997, y: -0.435}
      - {x: -0.72999996, y: -0.36499998}
      - {x: -0.58, y: -0.235}
      - {x: -0.5, y: -0.385}
      - {x: -0.42, y: -0.475}
      - {x: -0.26999998, y: -0.575}
      - {x: -0.07, y: -0.585}
      - {x: -0.099999994, y: -0.72499996}
      - {x: -0.39999998, y: -0.91499996}
      - {x: -0.59, y: -0.92499995}
      - {x: -0.71999997, y: -0.885}
      - {x: -0.87, y: -0.745}
      - {x: -0.97999996, y: -0.78499997}
      - {x: -0.97999996, y: -0.825}
      - {x: -0.77, y: -1.0649999}
      - {x: -0.63, y: -1.125}
      - {x: -0.38, y: -1.135}
      - {x: -0.24, y: -1.115}
      - {x: -0.07, y: -1.035}
      - {x: 0.04, y: -0.92499995}
      - {x: 0.12, y: -0.895}
      - {x: 0.19999999, y: -1.0649999}
      - {x: 0.34, y: -1.1949999}
      - {x: 0.51, y: -1.265}
      - {x: 0.82, y: -1.265}
      - {x: 0.96999997, y: -1.185}
      - {x: 1.14, y: -1.0849999}
      - {x: 1.1, y: -0.97499996}
    - - {x: -0.049999997, y: -0.385}
      - {x: -0.14999999, y: -0.235}
      - {x: -0.07, y: -0.235}
      - {x: -0.04, y: -0.21499999}
--- !u!212 &212197738262711100
SpriteRenderer:
  m_ObjectHideFlags: 1
  m_PrefabParentObject: {fileID: 0}
  m_PrefabInternal: {fileID: 100100000}
  m_GameObject: {fileID: 1226476618255692}
  m_Enabled: 1
  m_CastShadows: 0
  m_ReceiveShadows: 0
  m_MotionVectors: 1
  m_LightProbeUsage: 1
  m_ReflectionProbeUsage: 1
  m_Materials:
  - {fileID: 10754, guid: 0000000000000000f000000000000000, type: 0}
  m_StaticBatchInfo:
    firstSubMesh: 0
    subMeshCount: 0
  m_StaticBatchRoot: {fileID: 0}
  m_ProbeAnchor: {fileID: 0}
  m_LightProbeVolumeOverride: {fileID: 0}
  m_ScaleInLightmap: 1
  m_PreserveUVs: 0
  m_IgnoreNormalsForChartDetection: 0
  m_ImportantGI: 0
  m_SelectedEditorRenderState: 0
  m_MinimumChartSize: 4
  m_AutoUVMaxDistance: 0.5
  m_AutoUVMaxAngle: 89
  m_LightmapParameters: {fileID: 0}
  m_SortingLayerID: 0
  m_SortingLayer: 0
  m_SortingOrder: 0
  m_Sprite: {fileID: 21300000, guid: 081fe9bfa00fdca4dac70212f463e866, type: 3}
  m_Color: {r: 1, g: 1, b: 1, a: 1}
  m_FlipX: 0
  m_FlipY: 0
  m_DrawMode: 0
  m_Size: {x: 3, y: 2.53}
  m_AdaptiveModeThreshold: 0.5
  m_SpriteTileMode: 0
  m_WasSpriteAssigned: 1
  m_MaskInteraction: 0
