%YAML 1.1
%TAG !u! tag:unity3d.com,2011:
--- !u!1001 &100100000
Prefab:
  m_ObjectHideFlags: 1
  serializedVersion: 2
  m_Modification:
    m_TransformParent: {fileID: 0}
    m_Modifications: []
    m_RemovedComponents: []
  m_ParentPrefab: {fileID: 0}
  m_RootGameObject: {fileID: 1143489094884222}
  m_IsPrefabParent: 1
--- !u!1 &1143489094884222
GameObject:
  m_ObjectHideFlags: 0
  m_PrefabParentObject: {fileID: 0}
  m_PrefabInternal: {fileID: 100100000}
  serializedVersion: 5
  m_Component:
  - component: {fileID: 4731971561232710}
  - component: {fileID: 212191677457155560}
  - component: {fileID: 60875084047265732}
  m_Layer: 0
  m_Name: OtrovnoVoce
  m_TagString: Zivot
  m_Icon: {fileID: 0}
  m_NavMeshLayer: 0
  m_StaticEditorFlags: 0
  m_IsActive: 1
--- !u!4 &4731971561232710
Transform:
  m_ObjectHideFlags: 1
  m_PrefabParentObject: {fileID: 0}
  m_PrefabInternal: {fileID: 100100000}
  m_GameObject: {fileID: 1143489094884222}
  m_LocalRotation: {x: 0, y: 0, z: 0, w: 1}
  m_LocalPosition: {x: 66.486, y: -1.469, z: 0}
  m_LocalScale: {x: 0.41766477, y: 0.41766477, z: 0.41766477}
  m_Children: []
  m_Father: {fileID: 0}
  m_RootOrder: 0
  m_LocalEulerAnglesHint: {x: 0, y: 0, z: 0}
--- !u!60 &60875084047265732
PolygonCollider2D:
  m_ObjectHideFlags: 1
  m_PrefabParentObject: {fileID: 0}
  m_PrefabInternal: {fileID: 100100000}
  m_GameObject: {fileID: 1143489094884222}
  m_Enabled: 1
  m_Density: 1
  m_Material: {fileID: 0}
  m_IsTrigger: 1
  m_UsedByEffector: 0
  m_UsedByComposite: 0
  m_Offset: {x: 0, y: 0}
  m_SpriteTilingProperty:
    border: {x: 0, y: 0, z: 0, w: 0}
    pivot: {x: 0.5, y: 0.5}
    oldSize: {x: 6.45, y: 5.6}
    newSize: {x: 6.45, y: 5.6}
    adaptiveTilingThreshold: 0.5
    drawMode: 0
    adaptiveTiling: 0
  m_AutoTiling: 0
  m_Points:
    m_Paths:
    - - {x: 1.295, y: -2.3999999}
      - {x: 1.4649999, y: -2.33}
      - {x: 1.7049999, y: -2.2}
      - {x: 1.755, y: -2.18}
      - {x: 1.8549999, y: -2.08}
      - {x: 1.905, y: -2.11}
      - {x: 1.925, y: -2.04}
      - {x: 2.075, y: -1.89}
      - {x: 2.215, y: -1.73}
      - {x: 2.2949998, y: -1.61}
      - {x: 2.425, y: -1.42}
      - {x: 2.465, y: -1.27}
      - {x: 2.465, y: -1.1899999}
      - {x: 2.445, y: -1.09}
      - {x: 2.415, y: -0.88}
      - {x: 2.365, y: -0.77}
      - {x: 2.305, y: -0.65999997}
      - {x: 2.435, y: -0.64}
      - {x: 2.5149999, y: -0.59999996}
      - {x: 2.7649999, y: -0.63}
      - {x: 2.7949998, y: -0.57}
      - {x: 2.7949998, y: -0.51}
      - {x: 2.735, y: -0.44}
      - {x: 2.495, y: -0.45999998}
      - {x: 2.2849998, y: -0.53999996}
      - {x: 2.195, y: -0.5}
      - {x: 2.165, y: -0.45}
      - {x: 1.995, y: -0.39999998}
      - {x: 2.0449998, y: -0.29}
      - {x: 2.105, y: -0.11}
      - {x: 2.145, y: 0.03}
      - {x: 2.155, y: 0.14999999}
      - {x: 2.165, y: 0.29999998}
      - {x: 2.175, y: 0.38}
      - {x: 2.125, y: 0.41}
      - {x: 2.065, y: 0.51}
      - {x: 1.9449999, y: 0.66999996}
      - {x: 2.0349998, y: 0.71999997}
      - {x: 2.185, y: 0.87}
      - {x: 2.315, y: 1.12}
      - {x: 2.385, y: 1.18}
      - {x: 2.5149999, y: 1.31}
      - {x: 2.495, y: 1.36}
      - {x: 2.425, y: 1.35}
      - {x: 2.5049999, y: 1.4399999}
      - {x: 2.565, y: 1.52}
      - {x: 2.585, y: 1.5699999}
      - {x: 2.565, y: 1.5899999}
      - {x: 2.5349998, y: 1.5899999}
      - {x: 2.415, y: 1.54}
      - {x: 2.495, y: 1.64}
      - {x: 2.575, y: 1.8}
      - {x: 2.585, y: 1.8499999}
      - {x: 2.5249999, y: 1.87}
      - {x: 2.435, y: 1.8}
      - {x: 2.415, y: 1.9}
      - {x: 2.395, y: 2.03}
      - {x: 2.355, y: 2.06}
      - {x: 2.335, y: 2.2}
      - {x: 2.315, y: 2.22}
      - {x: 2.2649999, y: 2.22}
      - {x: 2.175, y: 2.1399999}
      - {x: 2.095, y: 2.04}
      - {x: 2.085, y: 2.07}
      - {x: 2.065, y: 2.26}
      - {x: 2.0049999, y: 2.28}
      - {x: 1.905, y: 2.1699998}
      - {x: 1.8249999, y: 2.06}
      - {x: 1.775, y: 1.9499999}
      - {x: 1.7149999, y: 1.8499999}
      - {x: 1.735, y: 2.03}
      - {x: 1.675, y: 2.05}
      - {x: 1.5749999, y: 1.9499999}
      - {x: 1.485, y: 1.7199999}
      - {x: 1.4549999, y: 1.7199999}
      - {x: 1.375, y: 1.81}
      - {x: 1.3349999, y: 1.81}
      - {x: 1.305, y: 1.77}
      - {x: 1.305, y: 1.5699999}
      - {x: 1.225, y: 1.63}
      - {x: 1.1949999, y: 1.64}
      - {x: 1.165, y: 1.5899999}
      - {x: 1.185, y: 1.35}
      - {x: 1.1949999, y: 1.26}
      - {x: 1.275, y: 1.03}
      - {x: 1.125, y: 1.03}
      - {x: 0.905, y: 1}
      - {x: 0.775, y: 0.94}
      - {x: 0.675, y: 0.87}
      - {x: 0.465, y: 0.66999996}
      - {x: 0.33499998, y: 0.51}
      - {x: 0.225, y: 0.51}
      - {x: 0.205, y: 0.48999998}
      - {x: 0.16499999, y: 0.53999996}
      - {x: 0.155, y: 0.59999996}
      - {x: 0.105, y: 0.96}
      - {x: 0.195, y: 0.96999997}
      - {x: 0.48499998, y: 1.02}
      - {x: 0.655, y: 1.05}
      - {x: 0.685, y: 1.06}
      - {x: 0.66499996, y: 1.22}
      - {x: 0.625, y: 1.38}
      - {x: 0.545, y: 1.8}
      - {x: 0.48499998, y: 2.21}
      - {x: 0.415, y: 2.54}
      - {x: 0.39499998, y: 2.57}
      - {x: 0.345, y: 2.57}
      - {x: 0.255, y: 2.56}
      - {x: -0.055, y: 2.49}
      - {x: -0.865, y: 2.35}
      - {x: -0.905, y: 2.33}
      - {x: -0.885, y: 2.2}
      - {x: -0.85499996, y: 2.09}
      - {x: -0.78499997, y: 1.7099999}
      - {x: -0.715, y: 1.3}
      - {x: -0.655, y: 0.89}
      - {x: -0.615, y: 0.82}
      - {x: -0.515, y: 0.83}
      - {x: -0.24499999, y: 0.89}
      - {x: -0.055, y: 0.91999996}
      - {x: -0.035, y: 0.75}
      - {x: -0.005, y: 0.65}
      - {x: -0.024999999, y: 0.61}
      - {x: -0.024999999, y: 0.48}
      - {x: -0.49499997, y: 0.47}
      - {x: -0.545, y: 0.51}
      - {x: -0.565, y: 0.51}
      - {x: -0.585, y: 0.48999998}
      - {x: -0.575, y: 0.51}
      - {x: -0.575, y: 0.55}
      - {x: -0.59499997, y: 0.58}
      - {x: -0.635, y: 0.55}
      - {x: -0.675, y: 0.61}
      - {x: -0.655, y: 0.7}
      - {x: -0.66499996, y: 0.76}
      - {x: -0.78499997, y: 0.79999995}
      - {x: -0.91499996, y: 0.87}
      - {x: -1.045, y: 0.90999997}
      - {x: -1.0849999, y: 0.90999997}
      - {x: -1.175, y: 0.84}
      - {x: -1.265, y: 0.71999997}
      - {x: -1.305, y: 0.62}
      - {x: -1.3149999, y: 0.55}
      - {x: -1.395, y: 0.52}
      - {x: -1.415, y: 0.45999998}
      - {x: -1.535, y: 0.34}
      - {x: -1.635, y: 0.22999999}
      - {x: -1.675, y: 0.14999999}
      - {x: -1.7149999, y: -0.03}
      - {x: -1.735, y: -0.22999999}
      - {x: -1.795, y: -0.17}
      - {x: -1.8249999, y: -0.17}
      - {x: -1.8449999, y: -0.19999999}
      - {x: -1.935, y: -0.17999999}
      - {x: -2.0449998, y: -0.17999999}
      - {x: -2.135, y: -0.29}
      - {x: -2.205, y: -0.39}
      - {x: -2.2749999, y: -0.32999998}
      - {x: -2.2949998, y: -0.32999998}
      - {x: -2.305, y: -0.35999998}
      - {x: -2.315, y: -0.38}
      - {x: -2.575, y: -0.35}
      - {x: -2.665, y: -0.35}
      - {x: -2.855, y: -0.44}
      - {x: -2.925, y: -0.52}
      - {x: -3.0049999, y: -0.72999996}
      - {x: -3.0249999, y: -0.87}
      - {x: -3.0349998, y: -0.90999997}
      - {x: -3.0349998, y: -0.97999996}
      - {x: -3.0249999, y: -1.03}
      - {x: -2.975, y: -1.1}
      - {x: -2.935, y: -1.28}
      - {x: -2.855, y: -1.3399999}
      - {x: -2.8049998, y: -1.3299999}
      - {x: -2.705, y: -1.1999999}
      - {x: -2.5449998, y: -1.13}
      - {x: -2.485, y: -1.09}
      - {x: -2.415, y: -0.87}
      - {x: -2.375, y: -0.78999996}
      - {x: -2.2749999, y: -0.72999996}
      - {x: -2.2849998, y: -0.78}
      - {x: -2.2849998, y: -0.93}
      - {x: -2.2749999, y: -1.02}
      - {x: -2.215, y: -1.0799999}
      - {x: -2.245, y: -1.16}
      - {x: -2.185, y: -1.18}
      - {x: -2.135, y: -1.17}
      - {x: -1.995, y: -1.1999999}
      - {x: -1.875, y: -1.22}
      - {x: -1.8149999, y: -1.27}
      - {x: -1.6949999, y: -1.26}
      - {x: -1.435, y: -1.25}
      - {x: -1.415, y: -1.36}
      - {x: -1.345, y: -1.48}
      - {x: -1.1949999, y: -1.6999999}
      - {x: -1.0849999, y: -1.8399999}
      - {x: -0.97499996, y: -1.9599999}
      - {x: -0.875, y: -2.01}
      - {x: -0.705, y: -2.1399999}
      - {x: -0.53499997, y: -2.23}
      - {x: -0.385, y: -2.29}
      - {x: -0.21499999, y: -2.37}
      - {x: -0.015, y: -2.46}
      - {x: 0.145, y: -2.49}
      - {x: 0.225, y: -2.5}
      - {x: 0.415, y: -2.51}
      - {x: 0.475, y: -2.52}
      - {x: 0.695, y: -2.52}
      - {x: 0.875, y: -2.5}
      - {x: 1.0849999, y: -2.46}
      - {x: 1.2149999, y: -2.4199998}
    - - {x: -0.79499996, y: -2.09}
      - {x: -0.79499996, y: -2.1399999}
      - {x: -0.775, y: -2.1499999}
      - {x: -0.73499995, y: -2.1499999}
      - {x: -0.73499995, y: -2.09}
    - - {x: -2.465, y: -1.13}
      - {x: -2.445, y: -1.15}
      - {x: -2.415, y: -1.14}
      - {x: -2.415, y: -1.11}
      - {x: -2.435, y: -1.09}
      - {x: -2.465, y: -1.1}
    - - {x: -2.235, y: -0.35}
      - {x: -2.205, y: -0.39}
      - {x: -2.175, y: -0.38}
      - {x: -2.175, y: -0.32999998}
      - {x: -2.205, y: -0.29}
      - {x: -2.235, y: -0.29999998}
    - - {x: -2.735, y: -0.38}
      - {x: -2.685, y: -0.35999998}
      - {x: -2.685, y: -0.32999998}
      - {x: -2.715, y: -0.32}
      - {x: -2.7549999, y: -0.35}
    - - {x: -2.155, y: -0.28}
      - {x: -2.125, y: -0.26999998}
      - {x: -2.125, y: -0.24}
      - {x: -2.155, y: -0.22999999}
      - {x: -2.175, y: -0.25}
    - - {x: -1.475, y: 0.53}
      - {x: -1.475, y: 0.48999998}
      - {x: -1.4549999, y: 0.47}
      - {x: -1.425, y: 0.48}
      - {x: -1.415, y: 0.53}
      - {x: -1.435, y: 0.55}
      - {x: -1.4549999, y: 0.55}
--- !u!212 &212191677457155560
SpriteRenderer:
  m_ObjectHideFlags: 1
  m_PrefabParentObject: {fileID: 0}
  m_PrefabInternal: {fileID: 100100000}
  m_GameObject: {fileID: 1143489094884222}
  m_Enabled: 1
  m_CastShadows: 0
  m_ReceiveShadows: 0
  m_MotionVectors: 1
  m_LightProbeUsage: 1
  m_ReflectionProbeUsage: 1
  m_Materials:
  - {fileID: 10754, guid: 0000000000000000f000000000000000, type: 0}
  m_StaticBatchInfo:
    firstSubMesh: 0
    subMeshCount: 0
  m_StaticBatchRoot: {fileID: 0}
  m_ProbeAnchor: {fileID: 0}
  m_LightProbeVolumeOverride: {fileID: 0}
  m_ScaleInLightmap: 1
  m_PreserveUVs: 0
  m_IgnoreNormalsForChartDetection: 0
  m_ImportantGI: 0
  m_SelectedEditorRenderState: 0
  m_MinimumChartSize: 4
  m_AutoUVMaxDistance: 0.5
  m_AutoUVMaxAngle: 89
  m_LightmapParameters: {fileID: 0}
  m_SortingLayerID: 0
  m_SortingLayer: 0
  m_SortingOrder: 0
  m_Sprite: {fileID: 21300000, guid: f6dac4b56465af04b9d88064bbf0431b, type: 3}
  m_Color: {r: 1, g: 1, b: 1, a: 1}
  m_FlipX: 0
  m_FlipY: 0
  m_DrawMode: 0
  m_Size: {x: 6.45, y: 5.6}
  m_AdaptiveModeThreshold: 0.5
  m_SpriteTileMode: 0
  m_WasSpriteAssigned: 1
  m_MaskInteraction: 0
